{
    "name": "flutter_docker",
    "context": "..",
    "dockerFile": "./Dockerfile",
    "remoteUser": "root",
    "mounts": ["source=/dev/bus/usb,target=/dev/bus/usb,type=bind"],
    "runArgs": ["--privileged"],
    "extensions": ["dart-code.flutter", "dart-code.dart-code", "vscjava.vscode-gradle"],
    "workspaceMount": "source=${localWorkspaceFolder},target=/home/developer/workspace,type=bind,consistency=delegated",
    "workspaceFolder": "/home/developer/workspace",
    "postAttachCommand": "flutter pub get"
  }